module github.com/fullacc/edimdoma/back

go 1.13

require (
	github.com/gin-contrib/cors v1.3.1
	github.com/gin-gonic/contrib v0.0.0-20191209060500-d6e26eeaa607
	github.com/gin-gonic/gin v1.6.2
	github.com/go-pg/pg v8.0.6+incompatible
	github.com/go-redis/redis v6.15.7+incompatible
	github.com/jinzhu/inflection v1.0.0 // indirect
	github.com/onsi/ginkgo v1.12.0 // indirect
	github.com/onsi/gomega v1.9.0 // indirect
	github.com/rs/xid v1.2.1
	github.com/segmentio/encoding v0.1.11
	github.com/streadway/amqp v0.0.0-20200108173154-1c71cc93ed71
	github.com/urfave/cli/v2 v2.2.0
	golang.org/x/crypto v0.0.0-20200323165209-0ec3e9974c59
	mellium.im/sasl v0.2.1 // indirect
)
